{
  "invokerPackage": "com.endava.levelup2020.restaurant.controller",
  "basePackage": "com.endava.levelup2020.restaurant.api.controller",
  "apiPackage": "com.endava.levelup2020.restaurant.api.controller",
  "modelPackage": "com.endava.levelup2020.restaurant.api.model",
  "serializableModel": "true"
}